Forecasting Sales Time-Series with XGBoost
…
# tsibble::interval(sales)
# tsibble::is_regular(sales)

sales

# Train (fit) models

# sales_fit <- sales |>
#   model(ets = ETS(num_sold), arima = ARIMA(num_sold)) |>
#   mutate(ensemble = (ets + arima)/2)

#left_join
```

# A tibble: 136,950 × 13
   date       country store product num_sold  year quarter month month_day dow  
   <date>     <fct>   <fct> <fct>      <dbl> <dbl>   <dbl> <dbl>     <int> <ord>
 1 2017-01-01 Argent… Kagg… Improv…      340  2017       1     1         1 Sund…
 2 2017-01-02 Argent… Kagg… Improv…      250  2017       1     1         2 Mond…
 3 2017-01-03 Argent… Kagg… Improv…      267  2017       1     1         3 Tues…
 4 2017-01-04 Argent… Kagg… Improv…      236  2017       1     1         4 Wedn…
 5 2017-01-05 Argent… Kagg… Improv…      247  2017       1     1         5 Thur…
 6 2017-01-06 Argent… Kagg… Improv…      235  2017       1     1         6 Frid…
 7 2017-01-07 Argent… Kagg… Improv…      239  2017       1     1         7 Satu…
 8 2017-01-08 Argent… Kagg… Improv…      256  2017       1     1         8 Sund…
 9 2017-01-09 Argent… Kagg… Improv…      193  2017       1     1         9 Mond…
10 2017-01-10 Argent… Kagg… Improv…      201  2017       1     1        10 Tues…
# ℹ 136,940 more rows
# ℹ 3 more variables: is_weekend <lgl>, pandemy <lgl>, holiday <lgl>
…
